
{
  "header": {
    "reportVersion": 1,
    "event": "Allocation failed - JavaScript heap out of memory",
    "trigger": "FatalError",
    "filename": "report.20200103.221305.16320.0.001.json",
    "dumpEventTime": "2020-01-03T22:13:05Z",
    "dumpEventTimeStamp": "1578085985725",
    "processId": 16320,
    "cwd": "C:\\Users\\Martin\\Desktop\\UTB\\ionic\\FootballApp\\ionicfootbalapp\\FootballApp",
    "commandLine": [
      "C:\\Program Files\\nodejs\\node.exe",
      "C:\\Users\\Martin\\Desktop\\UTB\\ionic\\FootballApp\\ionicfootbalapp\\FootballApp\\node_modules\\jest-worker\\build\\workers\\processChild.js"
    ],
    "nodejsVersion": "v12.13.0",
    "wordSize": 64,
    "arch": "x64",
    "platform": "win32",
    "componentVersions": {
      "node": "12.13.0",
      "v8": "7.7.299.13-node.12",
      "uv": "1.32.0",
      "zlib": "1.2.11",
      "brotli": "1.0.7",
      "ares": "1.15.0",
      "modules": "72",
      "nghttp2": "1.39.2",
      "napi": "5",
      "llhttp": "1.1.4",
      "http_parser": "2.8.0",
      "openssl": "1.1.1d",
      "cldr": "35.1",
      "icu": "64.2",
      "tz": "2019a",
      "unicode": "12.1"
    },
    "release": {
      "name": "node",
      "lts": "Erbium",
      "headersUrl": "https://nodejs.org/download/release/v12.13.0/node-v12.13.0-headers.tar.gz",
      "sourceUrl": "https://nodejs.org/download/release/v12.13.0/node-v12.13.0.tar.gz",
      "libUrl": "https://nodejs.org/download/release/v12.13.0/win-x64/node.lib"
    },
    "osName": "Windows_NT",
    "osRelease": "10.0.18362",
    "osVersion": "Windows 10 Home",
    "osMachine": "x86_64",
    "cpus": [
      {
        "model": "Intel(R) Core(TM) i5-6500 CPU @ 3.20GHz",
        "speed": 3192,
        "user": 9608796,
        "nice": 0,
        "sys": 8890515,
        "idle": 73924078,
        "irq": 1827203
      },
      {
        "model": "Intel(R) Core(TM) i5-6500 CPU @ 3.20GHz",
        "speed": 3192,
        "user": 12783437,
        "nice": 0,
        "sys": 6003000,
        "idle": 73636703,
        "irq": 178000
      },
      {
        "model": "Intel(R) Core(TM) i5-6500 CPU @ 3.20GHz",
        "speed": 3192,
        "user": 11495734,
        "nice": 0,
        "sys": 5505375,
        "idle": 75422031,
        "irq": 139031
      },
      {
        "model": "Intel(R) Core(TM) i5-6500 CPU @ 3.20GHz",
        "speed": 3192,
        "user": 13494234,
        "nice": 0,
        "sys": 5673687,
        "idle": 73255218,
        "irq": 121718
      }
    ],
    "networkInterfaces": [
      {
        "name": "Ethernet",
        "internal": false,
        "mac": "4c:cc:6a:63:f4:ff",
        "address": "fe80::584f:e266:706f:6aee",
        "netmask": "ffff:ffff:ffff:ffff::",
        "family": "IPv6",
        "scopeid": 5
      },
      {
        "name": "Ethernet",
        "internal": false,
        "mac": "4c:cc:6a:63:f4:ff",
        "address": "10.0.0.2",
        "netmask": "255.255.255.0",
        "family": "IPv4"
      },
      {
        "name": "Loopback Pseudo-Interface 1",
        "internal": true,
        "mac": "00:00:00:00:00:00",
        "address": "::1",
        "netmask": "ffff:ffff:ffff:ffff:ffff:ffff:ffff:ffff",
        "family": "IPv6",
        "scopeid": 0
      },
      {
        "name": "Loopback Pseudo-Interface 1",
        "internal": true,
        "mac": "00:00:00:00:00:00",
        "address": "127.0.0.1",
        "netmask": "255.0.0.0",
        "family": "IPv4"
      }
    ],
    "host": "DESKTOP-NVIS3RN"
  },
  "javascriptStack": {
    "message": "No stack.",
    "stack": [
      "Unavailable."
    ]
  },
  "nativeStack": [
    {
      "pc": "0x00007ff665ae1389",
      "symbol": "std::basic_ostream<char,std::char_traits<char> >::operator<<+10873"
    },
    {
      "pc": "0x00007ff665ae57cc",
      "symbol": "std::basic_ostream<char,std::char_traits<char> >::operator<<+28348"
    },
    {
      "pc": "0x00007ff665ae4778",
      "symbol": "std::basic_ostream<char,std::char_traits<char> >::operator<<+24168"
    },
    {
      "pc": "0x00007ff665bd332b",
      "symbol": "v8::base::CPU::has_sse+37723"
    },
    {
      "pc": "0x00007ff6663d6f4e",
      "symbol": "v8::Isolate::ReportExternalAllocationLimitReached+94"
    },
    {
      "pc": "0x00007ff6663bef91",
      "symbol": "v8::SharedArrayBuffer::Externalize+833"
    },
    {
      "pc": "0x00007ff66628c85c",
      "symbol": "v8::internal::Heap::EphemeronKeyWriteBarrierFromCode+1436"
    },
    {
      "pc": "0x00007ff666297c00",
      "symbol": "v8::internal::Heap::ProtectUnprotectedMemoryChunks+1312"
    },
    {
      "pc": "0x00007ff666294734",
      "symbol": "v8::internal::Heap::PageFlagsAreConsistent+3204"
    },
    {
      "pc": "0x00007ff666289fc3",
      "symbol": "v8::internal::Heap::CollectGarbage+1283"
    },
    {
      "pc": "0x00007ff666288794",
      "symbol": "v8::internal::Heap::AddRetainedMap+2356"
    },
    {
      "pc": "0x00007ff6662a9a65",
      "symbol": "v8::internal::Factory::NewFillerObject+53"
    },
    {
      "pc": "0x00007ff666016239",
      "symbol": "v8::internal::interpreter::JumpTableTargetOffsets::iterator::operator=+4057"
    },
    {
      "pc": "0x00007ff666802c6d",
      "symbol": "v8::internal::SetupIsolateDelegate::SetupHeap+567949"
    },
    {
      "pc": "0x00007ff6667b5d3e",
      "symbol": "v8::internal::SetupIsolateDelegate::SetupHeap+252766"
    },
    {
      "pc": "0x0000007ccc8f5e96",
      "symbol": ""
    }
  ],
  "javascriptHeap": {
    "totalMemory": 2157547520,
    "totalCommittedMemory": 2157547520,
    "usedMemory": 2136954504,
    "availableMemory": 49116024,
    "memoryLimit": 2197815296,
    "heapSpaces": {
      "read_only_space": {
        "memorySize": 262144,
        "committedMemory": 262144,
        "capacity": 261872,
        "used": 32296,
        "available": 229576
      },
      "new_space": {
        "memorySize": 8388608,
        "committedMemory": 8388608,
        "capacity": 4189952,
        "used": 297352,
        "available": 3892600
      },
      "old_space": {
        "memorySize": 2067116032,
        "committedMemory": 2067116032,
        "capacity": 2056090368,
        "used": 2055554248,
        "available": 536120
      },
      "code_space": {
        "memorySize": 1474560,
        "committedMemory": 1474560,
        "capacity": 1274208,
        "used": 1274208,
        "available": 0
      },
      "map_space": {
        "memorySize": 1314816,
        "committedMemory": 1314816,
        "capacity": 931840,
        "used": 931840,
        "available": 0
      },
      "large_object_space": {
        "memorySize": 78942208,
        "committedMemory": 78942208,
        "capacity": 78861008,
        "used": 78861008,
        "available": 0
      },
      "code_large_object_space": {
        "memorySize": 49152,
        "committedMemory": 49152,
        "capacity": 3552,
        "used": 3552,
        "available": 0
      },
      "new_large_object_space": {
        "memorySize": 0,
        "committedMemory": 0,
        "capacity": 4189952,
        "used": 0,
        "available": 4189952
      }
    }
  },
  "resourceUsage": {
    "userCpuSeconds": 104.843,
    "kernelCpuSeconds": 2.812,
    "cpuConsumptionPercent": 195.736,
    "maxRss": 2274168832,
    "pageFaults": {
      "IORequired": 821777,
      "IONotRequired": 0
    },
    "fsActivity": {
      "reads": 893,
      "writes": 110
    }
  },
  "libuv": [
  ],
  "environmentVariables": {
    "allusersprofile": "C:\\ProgramData",
    "appdata": "C:\\Users\\Martin\\AppData\\Roaming",
    "chocolateyinstall": "C:\\ProgramData\\chocolatey",
    "chocolateylastpathupdate": "132167552150672853",
    "colorterm": "truecolor",
    "commonprogramfiles": "C:\\Program Files\\Common Files",
    "commonprogramfiles(x86)": "C:\\Program Files (x86)\\Common Files",
    "commonprogramw6432": "C:\\Program Files\\Common Files",
    "computername": "DESKTOP-NVIS3RN",
    "comspec": "C:\\WINDOWS\\system32\\cmd.exe",
    "dp0": "C:\\Users\\Martin\\Desktop\\UTB\\ionic\\FootballApp\\ionicfootbalapp\\FootballApp\\node_modules\\.bin\\",
    "driverdata": "C:\\Windows\\System32\\Drivers\\DriverData",
    "FORCE_COLOR": "1",
    "force_color": "1",
    "fps_browser_app_profile_string": "Internet Explorer",
    "fps_browser_user_profile_string": "Default",
    "gtk_basepath": "C:\\Program Files (x86)\\GtkSharp\\2.12\\",
    "homedrive": "C:",
    "homepath": "\\Users\\Martin",
    "ionic_cli_bin": "C:\\Users\\Martin\\AppData\\Roaming\\npm\\node_modules\\ionic\\bin\\ionic",
    "ionic_cli_lib": "C:\\Users\\Martin\\AppData\\Roaming\\npm\\node_modules\\ionic",
    "ionic_cli_local_error": "LOCAL_CLI_NOT_FOUND",
    "JEST_WORKER_ID": "1",
    "lang": "cs_CZ.UTF-8",
    "localappdata": "C:\\Users\\Martin\\AppData\\Local",
    "logonserver": "\\\\DESKTOP-NVIS3RN",
    "number_of_processors": "4",
    "onedrive": "C:\\Users\\Martin\\OneDrive",
    "os": "Windows_NT",
    "path": "C:\\Users\\Martin\\Desktop\\UTB\\ionic\\FootballApp\\ionicfootbalapp\\FootballApp\\node_modules\\.bin;C:\\Python27\\;C:\\Python27\\Scripts;C:\\Program Files (x86)\\Intel\\iCLS Client\\;C:\\Program Files\\Intel\\iCLS Client\\;C:\\Windows\\system32;C:\\Windows;C:\\Windows\\System32\\Wbem;C:\\Windows\\System32\\WindowsPowerShell\\v1.0\\;C:\\Program Files (x86)\\NVIDIA Corporation\\PhysX\\Common;C:\\Program Files (x86)\\Intel\\Intel(R) Management Engine Components\\DAL;C:\\Program Files\\Intel\\Intel(R) Management Engine Components\\DAL;C:\\Program Files (x86)\\Intel\\Intel(R) Management Engine Components\\IPT;C:\\Program Files\\Intel\\Intel(R) Management Engine Components\\IPT;C:\\WINDOWS\\system32;C:\\WINDOWS;C:\\WINDOWS\\System32\\Wbem;C:\\WINDOWS\\System32\\WindowsPowerShell\\v1.0\\;C:\\Program Files (x86)\\GtkSharp\\2.12\\bin;C:\\Program Files (x86)\\Microsoft SQL Server\\Client SDK\\ODBC\\130\\Tools\\Binn\\;C:\\Program Files (x86)\\Microsoft SQL Server\\140\\Tools\\Binn\\;C:\\Program Files (x86)\\Microsoft SQL Server\\140\\DTS\\Binn\\;C:\\Program Files (x86)\\Microsoft SQL Server\\140\\Tools\\Binn\\ManagementStudio\\;C:\\Program Files\\TortoiseGit\\bin;C:\\Python27;C:\\Python27\\Scripts;C:\\Program Files\\doxygen\\bin;C:\\WINDOWS\\System32\\OpenSSH\\;C:\\Program Files (x86)\\QuickTime\\QTSystem\\;C:\\Program Files\\dotnet\\;C:\\Program Files\\Microsoft SQL Server\\130\\Tools\\Binn\\;C:\\Program Files\\nodejs\\;C:\\ProgramData\\chocolatey\\bin;C:\\Program Files\\Git\\cmd;C:\\Users\\Martin\\AppData\\Local\\Microsoft\\WindowsApps;;C:\\Users\\Martin\\AppData\\Local\\Programs\\Microsoft VS Code\\bin;C:\\Users\\Martin\\AppData\\Roaming\\npm",
    "pathext": ".COM;.EXE;.BAT;.CMD;.VBS;.VBE;.JSE;.WSF;.WSH;.MSC;.CPL",
    "processor_architecture": "AMD64",
    "processor_identifier": "Intel64 Family 6 Model 94 Stepping 3, GenuineIntel",
    "processor_level": "6",
    "processor_revision": "5e03",
    "programdata": "C:\\ProgramData",
    "programfiles": "C:\\Program Files",
    "programfiles(x86)": "C:\\Program Files (x86)",
    "programw6432": "C:\\Program Files",
    "PROMPT": "$P$G",
    "psmodulepath": "C:\\Users\\Martin\\Documents\\WindowsPowerShell\\Modules;C:\\Program Files\\WindowsPowerShell\\Modules;C:\\WINDOWS\\system32\\WindowsPowerShell\\v1.0\\Modules",
    "public": "C:\\Users\\Public",
    "python_home": "C:\\Python27",
    "sessionname": "Console",
    "systemdrive": "C:",
    "systemroot": "C:\\WINDOWS",
    "temp": "C:\\Users\\Martin\\AppData\\Local\\Temp",
    "term_program": "vscode",
    "term_program_version": "1.41.1",
    "tmp": "C:\\Users\\Martin\\AppData\\Local\\Temp",
    "userdomain": "DESKTOP-NVIS3RN",
    "userdomain_roamingprofile": "DESKTOP-NVIS3RN",
    "username": "Martin",
    "userprofile": "C:\\Users\\Martin",
    "vbox_msi_install_path": "C:\\Program Files\\Oracle\\VirtualBox\\",
    "vs140comntools": "C:\\Program Files (x86)\\Microsoft Visual Studio 14.0\\Common7\\Tools\\",
    "WEBPACK_DEV_SERVER": "true",
    "windir": "C:\\WINDOWS",
    "_prog": "node"
  },
  "sharedObjects": [
    "C:\\Program Files\\nodejs\\node.exe",
    "C:\\WINDOWS\\SYSTEM32\\ntdll.dll",
    "C:\\WINDOWS\\System32\\KERNEL32.DLL",
    "C:\\WINDOWS\\System32\\KERNELBASE.dll",
    "C:\\WINDOWS\\System32\\WS2_32.dll",
    "C:\\WINDOWS\\System32\\RPCRT4.dll",
    "C:\\WINDOWS\\System32\\ADVAPI32.dll",
    "C:\\WINDOWS\\System32\\msvcrt.dll",
    "C:\\WINDOWS\\System32\\sechost.dll",
    "C:\\WINDOWS\\System32\\USER32.dll",
    "C:\\WINDOWS\\System32\\win32u.dll",
    "C:\\WINDOWS\\System32\\GDI32.dll",
    "C:\\WINDOWS\\System32\\gdi32full.dll",
    "C:\\WINDOWS\\System32\\msvcp_win.dll",
    "C:\\WINDOWS\\System32\\ucrtbase.dll",
    "C:\\WINDOWS\\System32\\PSAPI.DLL",
    "C:\\WINDOWS\\System32\\CRYPT32.dll",
    "C:\\WINDOWS\\System32\\MSASN1.dll",
    "C:\\WINDOWS\\System32\\bcrypt.dll",
    "C:\\WINDOWS\\SYSTEM32\\IPHLPAPI.DLL",
    "C:\\WINDOWS\\SYSTEM32\\USERENV.dll",
    "C:\\WINDOWS\\System32\\profapi.dll",
    "C:\\WINDOWS\\SYSTEM32\\WINMM.dll",
    "C:\\WINDOWS\\SYSTEM32\\WINMMBASE.dll",
    "C:\\WINDOWS\\SYSTEM32\\dbghelp.dll",
    "C:\\WINDOWS\\System32\\cfgmgr32.dll",
    "C:\\WINDOWS\\System32\\bcryptPrimitives.dll",
    "C:\\WINDOWS\\System32\\IMM32.DLL",
    "C:\\WINDOWS\\System32\\powrprof.dll",
    "C:\\WINDOWS\\System32\\UMPDC.dll",
    "C:\\WINDOWS\\system32\\uxtheme.dll",
    "C:\\WINDOWS\\System32\\combase.dll",
    "C:\\WINDOWS\\system32\\mswsock.dll",
    "C:\\WINDOWS\\System32\\kernel.appcore.dll",
    "C:\\WINDOWS\\System32\\NSI.dll",
    "C:\\WINDOWS\\SYSTEM32\\dhcpcsvc6.DLL",
    "C:\\WINDOWS\\SYSTEM32\\dhcpcsvc.DLL",
    "C:\\WINDOWS\\SYSTEM32\\DNSAPI.dll",
    "C:\\WINDOWS\\system32\\napinsp.dll",
    "C:\\WINDOWS\\system32\\pnrpnsp.dll",
    "C:\\WINDOWS\\System32\\winrnr.dll",
    "C:\\WINDOWS\\system32\\NLAapi.dll",
    "C:\\WINDOWS\\system32\\wshbth.dll"
  ]
}